…
As shown below, the most items are ordered from the fresh vegetables
aisle, followed by the fresh fruits aisle.

``` r
# count number of items purchased from each aisle
items_per_aisle <- instacart %>% 
  group_by(aisle) %>% 
  summarize(n_items = n()) 

items_per_aisle %>% 
  arrange(desc(n_items))
```

    ## # A tibble: 134 x 2
    ##    aisle                         n_items
    ##    <chr>                           <int>
    ##  1 fresh vegetables               150609
    ##  2 fresh fruits                   150473
    ##  3 packaged vegetables fruits      78493
    ##  4 yogurt                          55240
    ##  5 packaged cheese                 41699
    ##  6 water seltzer sparkling water   36617
    ##  7 milk                            32644
    ##  8 chips pretzels                  31269
    ##  9 soy lactosefree                 26240
    ## 10 bread                           23635
    ## # … with 124 more rows

The fewest items are ordered from the beauty aisle, followed by the
frozen juice and baby accessories aisles.

``` r
items_per_aisle %>% 
  arrange(n_items)
```

    ## # A tibble: 134 x 2
    ##    aisle                      n_items
    ##    <chr>                        <int>
    ##  1 beauty                         287
    ##  2 frozen juice                   294
    ##  3 baby accessories               306
    ##  4 baby bath body care            328
    ##  5 kitchen supplies               448
    ##  6 specialty wines champagnes     461
    ##  7 ice cream toppings             504
    ##  8 shave needs                    532
    ##  9 skin care                      534
    ## 10 first aid                      539
    ## # … with 124 more rows
…
